%YAML 1.1
%TAG !u! tag:unity3d.com,2011:
--- !u!74 &7400000
AnimationClip:
  m_ObjectHideFlags: 0
  m_PrefabParentObject: {fileID: 0}
  m_PrefabInternal: {fileID: 0}
  m_Name: ChargeTransition
  serializedVersion: 6
  m_Legacy: 0
  m_Compressed: 0
  m_UseHighQualityCurve: 1
  m_RotationCurves:
  - curve:
      serializedVersion: 2
      m_Curve:
      - time: .0833333358
        value: {x: -0, y: -0, z: -.00218166015, w: -.999997616}
        inSlope: {x: 0, y: 0, z: -8.32161999, w: .598214924}
        outSlope: {x: 0, y: 0, z: -8.32161999, w: .598214924}
        tangentMode: 0
      - time: .100000001
        value: {x: -0, y: -0, z: -.140875325, w: -.990027368}
        inSlope: {x: 0, y: 0, z: -8.2399044, w: 1.17249203}
        outSlope: {x: 0, y: 0, z: -8.2399044, w: 1.17249203}
        tangentMode: 0
      - time: .116666667
        value: {x: -0, y: -0, z: -.276845127, w: -.960914552}
        inSlope: {x: 0, y: 0, z: -7.99760151, w: 2.30415654}
        outSlope: {x: 0, y: 0, z: -7.99760151, w: 2.30415654}
        tangentMode: 0
      - time: .13333334
        value: {x: -0, y: -0, z: -.40746209, w: -.913222134}
        inSlope: {x: 0, y: 0, z: -7.60066319, w: 3.39126825}
        outSlope: {x: 0, y: 0, z: -7.60066319, w: 3.39126825}
        tangentMode: 0
      - time: .150000006
        value: {x: -0, y: -0, z: -.530200601, w: -.847872257}
        inSlope: {x: 0, y: 0, z: -7.05676079, w: 4.41280985}
        outSlope: {x: 0, y: 0, z: -7.05676079, w: 4.41280985}
        tangentMode: 0
      - time: .166666672
        value: {x: -0, y: -0, z: -.64268744, w: -.76612848}
        inSlope: {x: 0, y: 0, z: -6.3764143, w: 5.34902573}
        outSlope: {x: 0, y: 0, z: -6.3764143, w: 5.34902573}
        tangentMode: 0
      - time: .183333337
        value: {x: -0, y: -0, z: -.742747724, w: -.6695714}
        inSlope: {x: 0, y: 0, z: -5.57277966, w: 6.18181801}
        outSlope: {x: 0, y: 0, z: -5.57277966, w: 6.18181801}
        tangentMode: 0
      - time: .200000003
        value: {x: -0, y: -0, z: -.828446746, w: -.560067892}
        inSlope: {x: 0, y: 0, z: -4.66139174, w: 6.89508533}
        outSlope: {x: 0, y: 0, z: -4.66139174, w: 6.89508533}
        tangentMode: 0
      - time: .216666669
        value: {x: -0, y: -0, z: -.898127437, w: -.439735234}
        inSlope: {x: 0, y: 0, z: -3.65987444, w: 7.47503185}
        outSlope: {x: 0, y: 0, z: -3.65987444, w: 7.47503185}
        tangentMode: 0
      - time: .233333334
        value: {x: -0, y: -0, z: -.950442553, w: -.310900182}
        inSlope: {x: 0, y: 0, z: -2.58759356, w: 7.91044044}
        outSlope: {x: 0, y: 0, z: -2.58759356, w: 7.91044044}
        tangentMode: 0
      - time: .25
        value: {x: -0, y: -0, z: -.984380543, w: -.176053897}
        inSlope: {x: 0, y: 0, z: -1.46527982, w: 8.19290638}
        outSlope: {x: 0, y: 0, z: -1.46527982, w: 8.19290638}
        tangentMode: 0
      - time: .266666681
        value: {x: -0, y: -0, z: -.999285221, w: -.0378031805}
        inSlope: {x: 0, y: 0, z: -.314633548, w: 8.31695652}
        outSlope: {x: 0, y: 0, z: -.314633548, w: 8.31695652}
        tangentMode: 0
      - time: .283333361
        value: {x: -0, y: -0, z: -.994868338, w: .101178236}
        inSlope: {x: 0, y: 0, z: .842098475, w: 8.28019524}
        outSlope: {x: 0, y: 0, z: .842098475, w: 8.28019524}
        tangentMode: 0
      - time: .300000042
        value: {x: -0, y: -0, z: -.971215248, w: .23820357}
        inSlope: {x: 0, y: 0, z: 1.98254597, w: 8.08333302}
        outSlope: {x: 0, y: 0, z: 1.98254597, w: 8.08333302}
        tangentMode: 0
      - time: .316666722
        value: {x: -0, y: -0, z: -.928783417, w: .370622903}
        inSlope: {x: 0, y: 0, z: 3.08465934, w: 7.73017406}
        outSlope: {x: 0, y: 0, z: 3.08465934, w: 7.73017406}
        tangentMode: 0
      - time: .333333403
        value: {x: -0, y: -0, z: -.868393183, w: .495876253}
        inSlope: {x: 0, y: 0, z: 4.12713099, w: 7.22755575}
        outSlope: {x: 0, y: 0, z: 4.12713099, w: 7.22755575}
        tangentMode: 0
      - time: .350000083
        value: {x: -0, y: -0, z: -.791212261, w: .611541629}
        inSlope: {x: 0, y: 0, z: 5.08980179, w: 6.5851841}
        outSlope: {x: 0, y: 0, z: 5.08980179, w: 6.5851841}
        tangentMode: 0
      - time: .366666764
        value: {x: -0, y: -0, z: -.698732972, w: .715382576}
        inSlope: {x: 0, y: 0, z: 5.95406246, w: 5.81548738}
        outSlope: {x: 0, y: 0, z: 5.95406246, w: 5.81548738}
        tangentMode: 0
      - time: .383333445
        value: {x: -0, y: -0, z: -.592743337, w: .805391371}
        inSlope: {x: 0, y: 0, z: 6.70319748, w: 4.93334866}
        outSlope: {x: 0, y: 0, z: 6.70319748, w: 4.93334866}
        tangentMode: 0
      - time: .400000125
        value: {x: -0, y: -0, z: -.475292861, w: .879827678}
        inSlope: {x: 0, y: 0, z: 7.32272243, w: 3.95582151}
        outSlope: {x: 0, y: 0, z: 7.32272243, w: 3.95582151}
        tangentMode: 0
      - time: .416666657
        value: {x: -0, y: -0, z: -.348653525, w: .937251687}
        inSlope: {x: 0, y: 0, z: 7.59842157, w: 3.44546843}
        outSlope: {x: 0, y: 0, z: 7.59842157, w: 3.44546843}
        tangentMode: 0
      m_PreInfinity: 2
      m_PostInfinity: 2
    path: 
  m_CompressedRotationCurves: []
  m_PositionCurves: []
  m_ScaleCurves: []
  m_FloatCurves:
  - curve:
      serializedVersion: 2
      m_Curve:
      - time: 0
        value: 0
        inSlope: 10
        outSlope: 10
        tangentMode: 10
      - time: .100000001
        value: 1
        inSlope: 3.79999995
        outSlope: 3.79999995
        tangentMode: 10
      - time: .516666651
        value: 0
        inSlope: -2.4000001
        outSlope: -2.4000001
        tangentMode: 10
      m_PreInfinity: 2
      m_PostInfinity: 2
    attribute: m_Color.a
    path: 
    classID: 212
    script: {fileID: 0}
  m_PPtrCurves:
  - curve:
    - time: .0833333358
      value: {fileID: 21300014, guid: 7533e0e418c266a4d9c70bffe75c11cb, type: 3}
    - time: .183333337
      value: {fileID: 21300012, guid: 7533e0e418c266a4d9c70bffe75c11cb, type: 3}
    - time: .25
      value: {fileID: 21300010, guid: 7533e0e418c266a4d9c70bffe75c11cb, type: 3}
    - time: .316666663
      value: {fileID: 21300008, guid: 7533e0e418c266a4d9c70bffe75c11cb, type: 3}
    - time: .383333325
      value: {fileID: 21300006, guid: 7533e0e418c266a4d9c70bffe75c11cb, type: 3}
    attribute: m_Sprite
    path: 
    classID: 212
    script: {fileID: 0}
  m_SampleRate: 60
  m_WrapMode: 0
  m_Bounds:
    m_Center: {x: 0, y: 0, z: 0}
    m_Extent: {x: 0, y: 0, z: 0}
  m_ClipBindingConstant:
    genericBindings:
    - path: 0
      attribute: 2
      script: {fileID: 0}
      classID: 4
      customType: 0
      isPPtrCurve: 0
    - path: 0
      attribute: 304273561
      script: {fileID: 0}
      classID: 212
      customType: 0
      isPPtrCurve: 0
    - path: 0
      attribute: 0
      script: {fileID: 0}
      classID: 212
      customType: 23
      isPPtrCurve: 1
    pptrCurveMapping:
    - {fileID: 21300014, guid: 7533e0e418c266a4d9c70bffe75c11cb, type: 3}
    - {fileID: 21300012, guid: 7533e0e418c266a4d9c70bffe75c11cb, type: 3}
    - {fileID: 21300010, guid: 7533e0e418c266a4d9c70bffe75c11cb, type: 3}
    - {fileID: 21300008, guid: 7533e0e418c266a4d9c70bffe75c11cb, type: 3}
    - {fileID: 21300006, guid: 7533e0e418c266a4d9c70bffe75c11cb, type: 3}
  m_AnimationClipSettings:
    serializedVersion: 2
    m_StartTime: 0
    m_StopTime: .516666651
    m_OrientationOffsetY: 0
    m_Level: 0
    m_CycleOffset: 0
    m_LoopTime: 0
    m_LoopBlend: 0
    m_LoopBlendOrientation: 0
    m_LoopBlendPositionY: 0
    m_LoopBlendPositionXZ: 0
    m_KeepOriginalOrientation: 0
    m_KeepOriginalPositionY: 1
    m_KeepOriginalPositionXZ: 0
    m_HeightFromFeet: 0
    m_Mirror: 0
  m_EditorCurves:
  - curve:
      serializedVersion: 2
      m_Curve:
      - time: 0
        value: 0
        inSlope: 10
        outSlope: 10
        tangentMode: 10
      - time: .100000001
        value: 1
        inSlope: 3.79999995
        outSlope: 3.79999995
        tangentMode: 10
      - time: .516666651
        value: 0
        inSlope: -2.4000001
        outSlope: -2.4000001
        tangentMode: 10
      m_PreInfinity: 2
      m_PostInfinity: 2
    attribute: m_Color.a
    path: 
    classID: 212
    script: {fileID: 0}
  - curve:
      serializedVersion: 2
      m_Curve:
      - time: .0833333358
        value: -0
        inSlope: 0
        outSlope: 0
        tangentMode: 0
      - time: .100000001
        value: -0
        inSlope: 0
        outSlope: 0
        tangentMode: 0
      - time: .116666667
        value: -0
        inSlope: 0
        outSlope: 0
        tangentMode: 0
      - time: .13333334
        value: -0
        inSlope: 0
        outSlope: 0
        tangentMode: 0
      - time: .150000006
        value: -0
        inSlope: 0
        outSlope: 0
        tangentMode: 0
      - time: .166666672
        value: -0
        inSlope: 0
        outSlope: 0
        tangentMode: 0
      - time: .183333337
        value: -0
        inSlope: 0
        outSlope: 0
        tangentMode: 0
      - time: .200000003
        value: -0
        inSlope: 0
        outSlope: 0
        tangentMode: 0
      - time: .216666669
        value: -0
        inSlope: 0
        outSlope: 0
        tangentMode: 0
      - time: .233333334
        value: -0
        inSlope: 0
        outSlope: 0
        tangentMode: 0
      - time: .25
        value: -0
        inSlope: 0
        outSlope: 0
        tangentMode: 0
      - time: .266666681
        value: -0
        inSlope: 0
        outSlope: 0
        tangentMode: 0
      - time: .283333361
        value: -0
        inSlope: 0
        outSlope: 0
        tangentMode: 0
      - time: .300000042
        value: -0
        inSlope: 0
        outSlope: 0
        tangentMode: 0
      - time: .316666722
        value: -0
        inSlope: 0
        outSlope: 0
        tangentMode: 0
      - time: .333333403
        value: -0
        inSlope: 0
        outSlope: 0
        tangentMode: 0
      - time: .350000083
        value: -0
        inSlope: 0
        outSlope: 0
        tangentMode: 0
      - time: .366666764
        value: -0
        inSlope: 0
        outSlope: 0
        tangentMode: 0
      - time: .383333445
        value: -0
        inSlope: 0
        outSlope: 0
        tangentMode: 0
      - time: .400000125
        value: -0
        inSlope: 0
        outSlope: 0
        tangentMode: 0
      - time: .416666657
        value: -0
        inSlope: 0
        outSlope: 0
        tangentMode: 0
      m_PreInfinity: 2
      m_PostInfinity: 2
    attribute: m_LocalRotation.x
    path: 
    classID: 4
    script: {fileID: 0}
  - curve:
      serializedVersion: 2
      m_Curve:
      - time: .0833333358
        value: -0
        inSlope: 0
        outSlope: 0
        tangentMode: 0
      - time: .100000001
        value: -0
        inSlope: 0
        outSlope: 0
        tangentMode: 0
      - time: .116666667
        value: -0
        inSlope: 0
        outSlope: 0
        tangentMode: 0
      - time: .13333334
        value: -0
        inSlope: 0
        outSlope: 0
        tangentMode: 0
      - time: .150000006
        value: -0
        inSlope: 0
        outSlope: 0
        tangentMode: 0
      - time: .166666672
        value: -0
        inSlope: 0
        outSlope: 0
        tangentMode: 0
      - time: .183333337
        value: -0
        inSlope: 0
        outSlope: 0
        tangentMode: 0
      - time: .200000003
        value: -0
        inSlope: 0
        outSlope: 0
        tangentMode: 0
      - time: .216666669
        value: -0
        inSlope: 0
        outSlope: 0
        tangentMode: 0
      - time: .233333334
        value: -0
        inSlope: 0
        outSlope: 0
        tangentMode: 0
      - time: .25
        value: -0
        inSlope: 0
        outSlope: 0
        tangentMode: 0
      - time: .266666681
        value: -0
        inSlope: 0
        outSlope: 0
        tangentMode: 0
      - time: .283333361
        value: -0
        inSlope: 0
        outSlope: 0
        tangentMode: 0
      - time: .300000042
        value: -0
        inSlope: 0
        outSlope: 0
        tangentMode: 0
      - time: .316666722
        value: -0
        inSlope: 0
        outSlope: 0
        tangentMode: 0
      - time: .333333403
        value: -0
        inSlope: 0
        outSlope: 0
        tangentMode: 0
      - time: .350000083
        value: -0
        inSlope: 0
        outSlope: 0
        tangentMode: 0
      - time: .366666764
        value: -0
        inSlope: 0
        outSlope: 0
        tangentMode: 0
      - time: .383333445
        value: -0
        inSlope: 0
        outSlope: 0
        tangentMode: 0
      - time: .400000125
        value: -0
        inSlope: 0
        outSlope: 0
        tangentMode: 0
      - time: .416666657
        value: -0
        inSlope: 0
        outSlope: 0
        tangentMode: 0
      m_PreInfinity: 2
      m_PostInfinity: 2
    attribute: m_LocalRotation.y
    path: 
    classID: 4
    script: {fileID: 0}
  - curve:
      serializedVersion: 2
      m_Curve:
      - time: .0833333358
        value: -.00218166015
        inSlope: -8.32161999
        outSlope: -8.32161999
        tangentMode: 0
      - time: .100000001
        value: -.140875325
        inSlope: -8.2399044
        outSlope: -8.2399044
        tangentMode: 0
      - time: .116666667
        value: -.276845127
        inSlope: -7.99760151
        outSlope: -7.99760151
        tangentMode: 0
      - time: .13333334
        value: -.40746209
        inSlope: -7.60066319
        outSlope: -7.60066319
        tangentMode: 0
      - time: .150000006
        value: -.530200601
        inSlope: -7.05676079
        outSlope: -7.05676079
        tangentMode: 0
      - time: .166666672
        value: -.64268744
        inSlope: -6.3764143
        outSlope: -6.3764143
        tangentMode: 0
      - time: .183333337
        value: -.742747724
        inSlope: -5.57277966
        outSlope: -5.57277966
        tangentMode: 0
      - time: .200000003
        value: -.828446746
        inSlope: -4.66139174
        outSlope: -4.66139174
        tangentMode: 0
      - time: .216666669
        value: -.898127437
        inSlope: -3.65987444
        outSlope: -3.65987444
        tangentMode: 0
      - time: .233333334
        value: -.950442553
        inSlope: -2.58759356
        outSlope: -2.58759356
        tangentMode: 0
      - time: .25
        value: -.984380543
        inSlope: -1.46527982
        outSlope: -1.46527982
        tangentMode: 0
      - time: .266666681
        value: -.999285221
        inSlope: -.314633548
        outSlope: -.314633548
        tangentMode: 0
      - time: .283333361
        value: -.994868338
        inSlope: .842098475
        outSlope: .842098475
        tangentMode: 0
      - time: .300000042
        value: -.971215248
        inSlope: 1.98254597
        outSlope: 1.98254597
        tangentMode: 0
      - time: .316666722
        value: -.928783417
        inSlope: 3.08465934
        outSlope: 3.08465934
        tangentMode: 0
      - time: .333333403
        value: -.868393183
        inSlope: 4.12713099
        outSlope: 4.12713099
        tangentMode: 0
      - time: .350000083
        value: -.791212261
        inSlope: 5.08980179
        outSlope: 5.08980179
        tangentMode: 0
      - time: .366666764
        value: -.698732972
        inSlope: 5.95406246
        outSlope: 5.95406246
        tangentMode: 0
      - time: .383333445
        value: -.592743337
        inSlope: 6.70319748
        outSlope: 6.70319748
        tangentMode: 0
      - time: .400000125
        value: -.475292861
        inSlope: 7.32272243
        outSlope: 7.32272243
        tangentMode: 0
      - time: .416666657
        value: -.348653525
        inSlope: 7.59842157
        outSlope: 7.59842157
        tangentMode: 0
      m_PreInfinity: 2
      m_PostInfinity: 2
    attribute: m_LocalRotation.z
    path: 
    classID: 4
    script: {fileID: 0}
  - curve:
      serializedVersion: 2
      m_Curve:
      - time: .0833333358
        value: -.999997616
        inSlope: .598214924
        outSlope: .598214924
        tangentMode: 0
      - time: .100000001
        value: -.990027368
        inSlope: 1.17249203
        outSlope: 1.17249203
        tangentMode: 0
      - time: .116666667
        value: -.960914552
        inSlope: 2.30415654
        outSlope: 2.30415654
        tangentMode: 0
      - time: .13333334
        value: -.913222134
        inSlope: 3.39126825
        outSlope: 3.39126825
        tangentMode: 0
      - time: .150000006
        value: -.847872257
        inSlope: 4.41280985
        outSlope: 4.41280985
        tangentMode: 0
      - time: .166666672
        value: -.76612848
        inSlope: 5.34902573
        outSlope: 5.34902573
        tangentMode: 0
      - time: .183333337
        value: -.6695714
        inSlope: 6.18181801
        outSlope: 6.18181801
        tangentMode: 0
      - time: .200000003
        value: -.560067892
        inSlope: 6.89508533
        outSlope: 6.89508533
        tangentMode: 0
      - time: .216666669
        value: -.439735234
        inSlope: 7.47503185
        outSlope: 7.47503185
        tangentMode: 0
      - time: .233333334
        value: -.310900182
        inSlope: 7.91044044
        outSlope: 7.91044044
        tangentMode: 0
      - time: .25
        value: -.176053897
        inSlope: 8.19290638
        outSlope: 8.19290638
        tangentMode: 0
      - time: .266666681
        value: -.0378031805
        inSlope: 8.31695652
        outSlope: 8.31695652
        tangentMode: 0
      - time: .283333361
        value: .101178236
        inSlope: 8.28019524
        outSlope: 8.28019524
        tangentMode: 0
      - time: .300000042
        value: .23820357
        inSlope: 8.08333302
        outSlope: 8.08333302
        tangentMode: 0
      - time: .316666722
        value: .370622903
        inSlope: 7.73017406
        outSlope: 7.73017406
        tangentMode: 0
      - time: .333333403
        value: .495876253
        inSlope: 7.22755575
        outSlope: 7.22755575
        tangentMode: 0
      - time: .350000083
        value: .611541629
        inSlope: 6.5851841
        outSlope: 6.5851841
        tangentMode: 0
      - time: .366666764
        value: .715382576
        inSlope: 5.81548738
        outSlope: 5.81548738
        tangentMode: 0
      - time: .383333445
        value: .805391371
        inSlope: 4.93334866
        outSlope: 4.93334866
        tangentMode: 0
      - time: .400000125
        value: .879827678
        inSlope: 3.95582151
        outSlope: 3.95582151
        tangentMode: 0
      - time: .416666657
        value: .937251687
        inSlope: 3.44546843
        outSlope: 3.44546843
        tangentMode: 0
      m_PreInfinity: 2
      m_PostInfinity: 2
    attribute: m_LocalRotation.w
    path: 
    classID: 4
    script: {fileID: 0}
  m_EulerEditorCurves:
  - curve:
      serializedVersion: 2
      m_Curve:
      - time: .0833333358
        value: 0
        inSlope: 0
        outSlope: 0
        tangentMode: 10
      - time: .416666657
        value: 0
        inSlope: 0
        outSlope: 0
        tangentMode: 10
      m_PreInfinity: 2
      m_PostInfinity: 2
    attribute: localEulerAnglesBaked.x
    path: 
    classID: 4
    script: {fileID: 0}
  - curve:
      serializedVersion: 2
      m_Curve:
      - time: .0833333358
        value: 0
        inSlope: 0
        outSlope: 0
        tangentMode: 10
      - time: .416666657
        value: 0
        inSlope: 0
        outSlope: 0
        tangentMode: 10
      m_PreInfinity: 2
      m_PostInfinity: 2
    attribute: localEulerAnglesBaked.y
    path: 
    classID: 4
    script: {fileID: 0}
  - curve:
      serializedVersion: 2
      m_Curve:
      - time: .0833333358
        value: .25
        inSlope: 956.820068
        outSlope: 956.820068
        tangentMode: 10
      - time: .416666657
        value: 319.190002
        inSlope: 956.820068
        outSlope: 956.820068
        tangentMode: 10
      m_PreInfinity: 2
      m_PostInfinity: 2
    attribute: localEulerAnglesBaked.z
    path: 
    classID: 4
    script: {fileID: 0}
  m_HasGenericRootTransform: 1
  m_HasMotionFloatCurves: 0
  m_GenerateMotionCurves: 0
  m_Events: []
