%YAML 1.1
%TAG !u! tag:unity3d.com,2011:
--- !u!74 &7400000
AnimationClip:
  m_ObjectHideFlags: 0
  m_PrefabParentObject: {fileID: 0}
  m_PrefabInternal: {fileID: 0}
  m_Name: OuterRingSpin
  serializedVersion: 4
  m_AnimationType: 2
  m_Compressed: 0
  m_UseHighQualityCurve: 1
  m_RotationCurves:
  - curve:
      serializedVersion: 2
      m_Curve:
      - time: 0
        value: {x: -0, y: -0, z: -.0174524058, w: -.99984771}
        inSlope: {x: 0, y: 0, z: .521570563, w: .0598096848}
        outSlope: {x: 0, y: 0, z: .521570563, w: .0598096848}
        tangentMode: 13
      - time: .5
        value: {x: -0, y: -0, z: .243332863, w: -.969942868}
        inSlope: {x: 0, y: 0, z: .504804134, w: .126641929}
        outSlope: {x: 0, y: 0, z: .504804134, w: .126641929}
        tangentMode: 0
      - time: 1
        value: {x: -0, y: -0, z: .487351716, w: -.873205781}
        inSlope: {x: 0, y: 0, z: .454457581, w: .25364089}
        outSlope: {x: 0, y: 0, z: .454457581, w: .25364089}
        tangentMode: -1
      - time: 1.5
        value: {x: -0, y: -0, z: .697790444, w: -.716301978}
        inSlope: {x: 0, y: 0, z: .37279743, w: .363163233}
        outSlope: {x: 0, y: 0, z: .37279743, w: .363163233}
        tangentMode: 563
      - time: 2
        value: {x: -0, y: -0, z: .860149145, w: -.510042548}
        inSlope: {x: 0, y: 0, z: .265450299, w: .447662324}
        outSlope: {x: 0, y: 0, z: .265450299, w: .447662324}
        tangentMode: 0
      - time: 2.5
        value: {x: -0, y: -0, z: .963240743, w: -.268639654}
        inSlope: {x: 0, y: 0, z: .139812768, w: .501315951}
        outSlope: {x: 0, y: 0, z: .139812768, w: .501315951}
        tangentMode: -1
      - time: 3
        value: {x: -0, y: -0, z: .999961913, w: -.00872656144}
        inSlope: {x: 0, y: 0, z: .00454169512, w: .520427465}
        outSlope: {x: 0, y: 0, z: .00454169512, w: .520427465}
        tangentMode: 115991312
      - time: 3.5
        value: {x: -0, y: -0, z: .967782438, w: .251787812}
        inSlope: {x: 0, y: 0, z: -.131042242, w: .503679752}
        outSlope: {x: 0, y: 0, z: -.131042242, w: .503679752}
        tangentMode: 0
      - time: 4
        value: {x: -0, y: -0, z: .868919671, w: .494953185}
        inSlope: {x: 0, y: 0, z: -.257597089, w: .452226907}
        outSlope: {x: 0, y: 0, z: -.257597089, w: .452226907}
        tangentMode: -1
      - time: 4.5
        value: {x: -0, y: -0, z: .710185349, w: .704014719}
        inSlope: {x: 0, y: 0, z: -.366402507, w: .369614035}
        outSlope: {x: 0, y: 0, z: -.366402507, w: .369614035}
        tangentMode: -285018
      - time: 5
        value: {x: -0, y: -0, z: .502517164, w: .86456722}
        inSlope: {x: 0, y: 0, z: -.449961454, w: .261533558}
        outSlope: {x: 0, y: 0, z: -.449961454, w: .261533558}
        tangentMode: 0
      - time: 5.5
        value: {x: -0, y: -0, z: .260223895, w: .965548277}
        inSlope: {x: 0, y: 0, z: -.502517223, w: .13543278}
        outSlope: {x: 0, y: 0, z: -.502517223, w: .13543278}
        tangentMode: 339842332
      - time: 6
        value: {x: -0, y: -0, z: -8.74227766e-08, w: 1}
        inSlope: {x: 0, y: 0, z: -.520447969, w: .0689034462}
        outSlope: {x: 0, y: 0, z: -.520447969, w: .0689034462}
        tangentMode: 128466156
      m_PreInfinity: 2
      m_PostInfinity: 2
    path: 
  m_CompressedRotationCurves: []
  m_PositionCurves: []
  m_ScaleCurves: []
  m_FloatCurves:
  - curve:
      serializedVersion: 2
      m_Curve:
      - time: 0
        value: 1
        inSlope: -.592156887
        outSlope: -.592156887
        tangentMode: 10
      - time: 1
        value: .407843143
        inSlope: -.060784325
        outSlope: -.060784325
        tangentMode: 10
      - time: 2
        value: .87843138
        inSlope: .144444436
        outSlope: .144444436
        tangentMode: 10
      - time: 5
        value: .333333343
        inSlope: .242483646
        outSlope: .242483646
        tangentMode: 10
      - time: 6
        value: 1
        inSlope: .666666627
        outSlope: .666666627
        tangentMode: 10
      m_PreInfinity: 2
      m_PostInfinity: 2
    attribute: m_Color.a
    path: 
    classID: 114
    script: {fileID: -765806418, guid: f5f67c52d1564df4a8936ccd202a3bd8, type: 3}
  m_PPtrCurves: []
  m_SampleRate: 20
  m_WrapMode: 0
  m_Bounds:
    m_Center: {x: 0, y: 0, z: 0}
    m_Extent: {x: 0, y: 0, z: 0}
  m_ClipBindingConstant:
    genericBindings:
    - path: 0
      attribute: 2
      script: {fileID: 0}
      classID: 4
      customType: 0
      isPPtrCurve: 0
    - path: 0
      attribute: 304273561
      script: {fileID: -765806418, guid: f5f67c52d1564df4a8936ccd202a3bd8, type: 3}
      classID: 114
      customType: 0
      isPPtrCurve: 0
    pptrCurveMapping: []
  m_AnimationClipSettings:
    serializedVersion: 2
    m_StartTime: 0
    m_StopTime: 6
    m_OrientationOffsetY: 0
    m_Level: 0
    m_CycleOffset: 0
    m_LoopTime: 1
    m_LoopBlend: 0
    m_LoopBlendOrientation: 0
    m_LoopBlendPositionY: 0
    m_LoopBlendPositionXZ: 0
    m_KeepOriginalOrientation: 0
    m_KeepOriginalPositionY: 1
    m_KeepOriginalPositionXZ: 0
    m_HeightFromFeet: 0
    m_Mirror: 0
  m_EditorCurves:
  - curve:
      serializedVersion: 2
      m_Curve:
      - time: 0
        value: -0
        inSlope: 0
        outSlope: 0
        tangentMode: 0
      - time: .5
        value: -0
        inSlope: 0
        outSlope: 0
        tangentMode: 0
      - time: 1
        value: -0
        inSlope: 0
        outSlope: 0
        tangentMode: 0
      - time: 1.5
        value: -0
        inSlope: 0
        outSlope: 0
        tangentMode: 0
      - time: 2
        value: -0
        inSlope: 0
        outSlope: 0
        tangentMode: 0
      - time: 2.5
        value: -0
        inSlope: 0
        outSlope: 0
        tangentMode: 0
      - time: 3
        value: -0
        inSlope: 0
        outSlope: 0
        tangentMode: 0
      - time: 3.5
        value: -0
        inSlope: 0
        outSlope: 0
        tangentMode: 0
      - time: 4
        value: -0
        inSlope: 0
        outSlope: 0
        tangentMode: 0
      - time: 4.5
        value: -0
        inSlope: 0
        outSlope: 0
        tangentMode: 0
      - time: 5
        value: -0
        inSlope: 0
        outSlope: 0
        tangentMode: 0
      - time: 5.5
        value: -0
        inSlope: 0
        outSlope: 0
        tangentMode: 0
      - time: 6
        value: -0
        inSlope: 0
        outSlope: 0
        tangentMode: 0
      m_PreInfinity: 2
      m_PostInfinity: 2
    attribute: m_LocalRotation.x
    path: 
    classID: 224
    script: {fileID: 0}
  - curve:
      serializedVersion: 2
      m_Curve:
      - time: 0
        value: -0
        inSlope: 0
        outSlope: 0
        tangentMode: 0
      - time: .5
        value: -0
        inSlope: 0
        outSlope: 0
        tangentMode: 0
      - time: 1
        value: -0
        inSlope: 0
        outSlope: 0
        tangentMode: 0
      - time: 1.5
        value: -0
        inSlope: 0
        outSlope: 0
        tangentMode: 0
      - time: 2
        value: -0
        inSlope: 0
        outSlope: 0
        tangentMode: 0
      - time: 2.5
        value: -0
        inSlope: 0
        outSlope: 0
        tangentMode: 0
      - time: 3
        value: -0
        inSlope: 0
        outSlope: 0
        tangentMode: 0
      - time: 3.5
        value: -0
        inSlope: 0
        outSlope: 0
        tangentMode: 0
      - time: 4
        value: -0
        inSlope: 0
        outSlope: 0
        tangentMode: 0
      - time: 4.5
        value: -0
        inSlope: 0
        outSlope: 0
        tangentMode: 0
      - time: 5
        value: -0
        inSlope: 0
        outSlope: 0
        tangentMode: 0
      - time: 5.5
        value: -0
        inSlope: 0
        outSlope: 0
        tangentMode: 0
      - time: 6
        value: -0
        inSlope: 0
        outSlope: 0
        tangentMode: 0
      m_PreInfinity: 2
      m_PostInfinity: 2
    attribute: m_LocalRotation.y
    path: 
    classID: 224
    script: {fileID: 0}
  - curve:
      serializedVersion: 2
      m_Curve:
      - time: 0
        value: -.0174524058
        inSlope: .521570563
        outSlope: .521570563
        tangentMode: 0
      - time: .5
        value: .243332863
        inSlope: .504804134
        outSlope: .504804134
        tangentMode: 0
      - time: 1
        value: .487351716
        inSlope: .454457581
        outSlope: .454457581
        tangentMode: 0
      - time: 1.5
        value: .697790444
        inSlope: .37279743
        outSlope: .37279743
        tangentMode: 0
      - time: 2
        value: .860149145
        inSlope: .265450299
        outSlope: .265450299
        tangentMode: 0
      - time: 2.5
        value: .963240743
        inSlope: .139812768
        outSlope: .139812768
        tangentMode: 0
      - time: 3
        value: .999961913
        inSlope: .00454169512
        outSlope: .00454169512
        tangentMode: 0
      - time: 3.5
        value: .967782438
        inSlope: -.131042242
        outSlope: -.131042242
        tangentMode: 0
      - time: 4
        value: .868919671
        inSlope: -.257597089
        outSlope: -.257597089
        tangentMode: 0
      - time: 4.5
        value: .710185349
        inSlope: -.366402507
        outSlope: -.366402507
        tangentMode: 0
      - time: 5
        value: .502517164
        inSlope: -.449961454
        outSlope: -.449961454
        tangentMode: 0
      - time: 5.5
        value: .260223895
        inSlope: -.502517223
        outSlope: -.502517223
        tangentMode: 0
      - time: 6
        value: -8.74227766e-08
        inSlope: -.520447969
        outSlope: -.520447969
        tangentMode: 0
      m_PreInfinity: 2
      m_PostInfinity: 2
    attribute: m_LocalRotation.z
    path: 
    classID: 224
    script: {fileID: 0}
  - curve:
      serializedVersion: 2
      m_Curve:
      - time: 0
        value: -.99984771
        inSlope: .0598096848
        outSlope: .0598096848
        tangentMode: 0
      - time: .5
        value: -.969942868
        inSlope: .126641929
        outSlope: .126641929
        tangentMode: 0
      - time: 1
        value: -.873205781
        inSlope: .25364089
        outSlope: .25364089
        tangentMode: 0
      - time: 1.5
        value: -.716301978
        inSlope: .363163233
        outSlope: .363163233
        tangentMode: 0
      - time: 2
        value: -.510042548
        inSlope: .447662324
        outSlope: .447662324
        tangentMode: 0
      - time: 2.5
        value: -.268639654
        inSlope: .501315951
        outSlope: .501315951
        tangentMode: 0
      - time: 3
        value: -.00872656144
        inSlope: .520427465
        outSlope: .520427465
        tangentMode: 0
      - time: 3.5
        value: .251787812
        inSlope: .503679752
        outSlope: .503679752
        tangentMode: 0
      - time: 4
        value: .494953185
        inSlope: .452226907
        outSlope: .452226907
        tangentMode: 0
      - time: 4.5
        value: .704014719
        inSlope: .369614035
        outSlope: .369614035
        tangentMode: 0
      - time: 5
        value: .86456722
        inSlope: .261533558
        outSlope: .261533558
        tangentMode: 0
      - time: 5.5
        value: .965548277
        inSlope: .13543278
        outSlope: .13543278
        tangentMode: 0
      - time: 6
        value: 1
        inSlope: .0689034462
        outSlope: .0689034462
        tangentMode: 0
      m_PreInfinity: 2
      m_PostInfinity: 2
    attribute: m_LocalRotation.w
    path: 
    classID: 224
    script: {fileID: 0}
  - curve:
      serializedVersion: 2
      m_Curve:
      - time: 0
        value: 1
        inSlope: -.592156887
        outSlope: -.592156887
        tangentMode: 10
      - time: 1
        value: .407843143
        inSlope: -.060784325
        outSlope: -.060784325
        tangentMode: 10
      - time: 2
        value: .87843138
        inSlope: .144444436
        outSlope: .144444436
        tangentMode: 10
      - time: 5
        value: .333333343
        inSlope: .242483646
        outSlope: .242483646
        tangentMode: 10
      - time: 6
        value: 1
        inSlope: .666666627
        outSlope: .666666627
        tangentMode: 10
      m_PreInfinity: 2
      m_PostInfinity: 2
    attribute: m_Color.a
    path: 
    classID: 114
    script: {fileID: -765806418, guid: f5f67c52d1564df4a8936ccd202a3bd8, type: 3}
  m_EulerEditorCurves:
  - curve:
      serializedVersion: 2
      m_Curve:
      - time: 0
        value: 0
        inSlope: 0
        outSlope: 0
        tangentMode: 10
      - time: 6
        value: 0
        inSlope: 0
        outSlope: 0
        tangentMode: 10
      m_PreInfinity: 2
      m_PostInfinity: 2
    attribute: localEulerAnglesBaked.x
    path: 
    classID: 224
    script: {fileID: 0}
  - curve:
      serializedVersion: 2
      m_Curve:
      - time: 0
        value: 0
        inSlope: 0
        outSlope: 0
        tangentMode: 10
      - time: 6
        value: 0
        inSlope: 0
        outSlope: 0
        tangentMode: 10
      m_PreInfinity: 2
      m_PostInfinity: 2
    attribute: localEulerAnglesBaked.y
    path: 
    classID: 224
    script: {fileID: 0}
  - curve:
      serializedVersion: 2
      m_Curve:
      - time: 0
        value: 2
        inSlope: -60.3333321
        outSlope: -60.3333321
        tangentMode: 10
      - time: 6
        value: -360
        inSlope: -60.3333321
        outSlope: -60.3333321
        tangentMode: 10
      m_PreInfinity: 2
      m_PostInfinity: 2
    attribute: localEulerAnglesBaked.z
    path: 
    classID: 224
    script: {fileID: 0}
  m_Events: []
